/home/samuel/repos/training/apache-poi/apache.poi/src/main/java/za/co/sammya/PodcastIndexService.java
/home/samuel/repos/training/apache-poi/apache.poi/src/main/java/za/co/sammya/XSSFService.java
/home/samuel/repos/training/apache-poi/apache.poi/src/main/java/za/co/sammya/MainAppRun.java
/home/samuel/repos/training/apache-poi/apache.poi/src/main/java/za/co/sammya/PodcastIndexServiceImpl.java
